Sketch – March Madness Data
…
 # all winning teams had turnover rates lower than 20%, meaning they turn the ball over on fewer than 20% of their possessions

CONF_win_perc |>
  arrange(desc(win_percentage))

# A tibble: 36 × 4
   CONF  total_games_played total_games_won win_percentage
   <chr>              <dbl>           <dbl>          <dbl>
 1 B12                 3342            2055           61.5
 2 B10                 4531            2708           59.8
 3 BE                  3541            2113           59.7
 4 ACC                 4854            2892           59.6
 5 Ind                   29              17           58.6
 6 SEC                 4616            2684           58.1
 7 P12                 3934            2262           57.5
 8 Amer                3151            1782           56.6
 9 WCC                 3050            1713           56.2
10 MWC                 3341            1874           56.1
# ℹ 26 more rows
…
